E:\Google Drive\MyWorkSpace\SimpleTestngFramework\src\test\java\com\testng\framework\utils\DriverManager.java
E:\Google Drive\MyWorkSpace\SimpleTestngFramework\src\test\java\com\testng\framework\testscripts\HomePageTest.java
E:\Google Drive\MyWorkSpace\SimpleTestngFramework\src\test\java\com\testng\framework\pageobjects\BDSCoverPage.java
E:\Google Drive\MyWorkSpace\SimpleTestngFramework\src\test\java\com\testng\framework\pageobjects\BDSHomePage.java
E:\Google Drive\MyWorkSpace\SimpleTestngFramework\src\test\java\com\testng\framework\utils\DriverInitializer.java
E:\Google Drive\MyWorkSpace\SimpleTestngFramework\src\test\java\com\testng\framework\testscripts\LoginPageTest.java
E:\Google Drive\MyWorkSpace\SimpleTestngFramework\src\test\java\com\testng\framework\utils\DriverFactory.java
E:\Google Drive\MyWorkSpace\SimpleTestngFramework\src\test\java\com\testng\framework\pageobjects\BDSLoginPage.java
E:\Google Drive\MyWorkSpace\SimpleTestngFramework\src\test\java\com\testng\framework\testscripts\CoverPageTest.java
E:\Google Drive\MyWorkSpace\SimpleTestngFramework\src\test\java\com\testng\framework\utils\DriverClass.java
